[
  {
    "id": 1,
    "date": "03-16-22",
    "phrase": "A bird in the hand is worth two in the bush",
    "emoji": "🐥✋⚖🐥🐥🌳"
  },
  {
    "id": 2,
    "date": "03-17-22",
    "phrase": "An apple a day keeps the dentis away",
    "emoji": "🍎📅👩‍⚕️💨"
  },
  {
    "id": 3,
    "date": "03-18-22",
    "phrase": "Waste not, Want not",
    "emoji": "🗑❌🤤❌"
  },
  {
    "id": 4,
    "date": "03-19-22",
    "phrase": "More than one way to skin a cat",
    "emoji": "⬆️1️⃣🛣🪒🐈"
  },
  {
    "id": 5,
    "date": "03-20-22",
    "phrase": "Make a mountain out of a mole hill",
    "emoji": "🛠⛰️🐻⛰️"
  },
  {
    "id": 6,
    "date": "03-21-22",
    "phrase": "A storm in a tea cup",
    "emoji": "🌪↘☕"
  },
  {
    "id": 7,
    "date": "03-23-22",
    "phrase": "What doesn't kill you makes you stronger",
    "emoji": "💦🚫🔪🐑 🛠🐑💪"
  },
  {
    "id": 8,
    "date": "03-24-22",
    "phrase": "You can't have your cake and eat it too",
    "emoji": "🐑🥫✝️🌗🏺🎂➕🍴👨‍💻✌️"
  },
  {
    "id": 9,
    "date": "03-25-22",
    "phrase": "One man's trash is another one's treasure",
    "emoji": "1️⃣👨🗑🧔💰"
  }
]
