<?xml version="1.0" encoding="utf-8"?>
<!-- Generator: Adobe Illustrator 24.1.3, SVG Export Plug-In . SVG Version: 6.00 Build 0)  -->
<svg version="1.1" id="Layer_2_1_" xmlns="http://www.w3.org/2000/svg" xmlns:xlink="http://www.w3.org/1999/xlink" x="0px" y="0px"
	 viewBox="0 0 64 64" style="enable-background:new 0 0 64 64;" xml:space="preserve">
<style type="text/css">
	.st0{opacity:0.3;fill:#FFFFFF;}
	.st1{fill:#FFFFFF;}
</style>
<circle class="st0" cx="32" cy="32" r="22.9"/>
<path class="st1" d="M32,46.9c-8.2,0-14.9-6.7-14.9-14.9S23.8,17.1,32,17.1S46.9,23.8,46.9,32S40.2,46.9,32,46.9z M32,18.9
	c-7.2,0-13.1,5.8-13.1,13.1S24.8,45.1,32,45.1S45.1,39.2,45.1,32S39.2,18.9,32,18.9z"/>
<circle class="st1" cx="27.8" cy="28.7" r="2.4"/>
<circle class="st1" cx="37.2" cy="28.7" r="2.4"/>
<path class="st1" d="M32.1,39.2c-1.6,0-3.3-0.6-4.6-1.6l-2.3-1.9c-0.4-0.3-0.4-0.9-0.1-1.3c0.3-0.4,0.9-0.4,1.3-0.1l2.3,1.9
	c1.9,1.6,4.8,1.6,6.8,0l2.3-1.9c0.4-0.3,0.9-0.3,1.3,0.1c0.3,0.4,0.3,0.9-0.1,1.3l-2.3,1.9C35.3,38.7,33.6,39.2,32.1,39.2z"/>
</svg>
