<?xml version="1.0" encoding="utf-8"?>
<!-- Generator: Adobe Illustrator 24.1.3, SVG Export Plug-In . SVG Version: 6.00 Build 0)  -->
<svg version="1.1" id="Layer_2_1_" xmlns="http://www.w3.org/2000/svg" xmlns:xlink="http://www.w3.org/1999/xlink" x="0px" y="0px"
	 viewBox="0 0 64 64" style="enable-background:new 0 0 64 64;" xml:space="preserve">
<style type="text/css">
	.st0{fill:#FFFFFF;}
</style>
<g>
	<path class="st0" d="M17.7,34.6c0-0.3,0-0.5,0-0.6c0-0.8,0.1-1.6,0.4-2.2c0.2-0.5,0.5-0.9,0.8-1.4c0.3-0.3,0.8-0.8,1.5-1.5
		c0.7-0.7,1.2-1.2,1.4-1.6c0.2-0.4,0.3-0.8,0.3-1.3c0-0.8-0.3-1.6-1-2.2c-0.6-0.6-1.4-0.9-2.4-0.9c-0.9,0-1.7,0.3-2.3,0.9
		s-1,1.5-1.2,2.7l-2.2-0.3c0.2-1.6,0.8-2.9,1.8-3.7s2.3-1.3,3.9-1.3c1.7,0,3.1,0.5,4.1,1.4c1,0.9,1.5,2,1.5,3.4
		c0,0.8-0.2,1.5-0.5,2.1s-1.1,1.4-2.1,2.3c-0.7,0.6-1.2,1.1-1.4,1.4c-0.2,0.3-0.4,0.6-0.5,1c-0.1,0.4-0.2,1-0.2,1.9H17.7z
		 M17.5,38.9v-2.4H20v2.4H17.5z"/>
	<path class="st0" d="M34.7,38.9h-2.1V25.2c-0.5,0.5-1.2,1-2,1.5c-0.8,0.5-1.6,0.9-2.3,1.1v-2.1c1.2-0.6,2.2-1.2,3.1-2
		c0.9-0.8,1.5-1.6,1.9-2.3h1.4V38.9z"/>
	<path class="st0" d="M51.4,36.8v2.1H39.9c0-0.5,0.1-1,0.2-1.5c0.3-0.8,0.8-1.6,1.4-2.3c0.6-0.8,1.6-1.6,2.8-2.6
		c1.9-1.6,3.2-2.8,3.8-3.7c0.7-0.9,1-1.8,1-2.6c0-0.8-0.3-1.6-0.9-2.1s-1.4-0.9-2.4-0.9c-1,0-1.9,0.3-2.5,0.9
		c-0.6,0.6-0.9,1.5-0.9,2.6l-2.2-0.2c0.2-1.6,0.7-2.9,1.7-3.7c1-0.9,2.3-1.3,4-1.3c1.7,0,3,0.5,4,1.4c1,0.9,1.5,2.1,1.5,3.4
		c0,0.7-0.1,1.4-0.4,2.1c-0.3,0.7-0.8,1.4-1.4,2.1c-0.7,0.7-1.8,1.8-3.3,3.1c-1.3,1.1-2.1,1.8-2.5,2.2c-0.4,0.4-0.7,0.8-0.9,1.2
		H51.4z"/>
</g>
</svg>
